{ "op": "intersect",
  "childs": [
    { "geo": "sphere",
      "params": { "center": [0, 0, 0],  "radius": 1}
    },
    { "geo": "sphere",
      "params": { "center": [1, 0, 0],  "radius": 1}
    },
    { "geo": "sphere",
      "params": { "center": [0.5, 0.86602540378, 0],  "radius": 1}
    }
  ]
}
