{ "op": "subtract",
  "childs": [
    { "geo": "cube",
      "params": { "center": [0, 0, 0],   "radius": [0.5, 0.5, 0.5], "rotation": [0, 0, 0.78539816339] }
    },
    { "geo": "cube",
      "params": { "center": [0.7, 0, 0], "radius": [0.5, 0.5, 0.5], "rotation": [0, 0, 0.78539816339] }
    }
  ]
}
